{
  "project_info": {
    "project_number": "624614080574",
    "firebase_url": "https://webflix-9412d.firebaseio.com",
    "project_id": "webflix-9412d",
    "storage_bucket": "webflix-9412d.appspot.com"
  },
  "client": [
    {
      "client_info": {
        "mobilesdk_app_id": "1:624614080574:android:3229b9843d9039f363516f",
        "android_client_info": {
          "package_name": "com.biroliroapp.app_firebase"
        }
      },
      "oauth_client": [
        {
          "client_id": "624614080574-juf5ohric467qdvestanjrvo2tq3upuf.apps.googleusercontent.com",
          "client_type": 1,
          "android_info": {
            "package_name": "com.biroliroapp.app_firebase",
            "certificate_hash": "133cdfd68b3064e7656ba2ea56ce3eddcdc7e781"
          }
        },
        {
          "client_id": "624614080574-snmjbfglqommfevkhhr3bv3khr748cav.apps.googleusercontent.com",
          "client_type": 3
        }
      ],
      "api_key": [
        {
          "current_key": "AIzaSyBSjgFpLd64jhdVXXHeXdOZmmJk5dxt5zU"
        }
      ],
      "services": {
        "appinvite_service": {
          "other_platform_oauth_client": [
            {
              "client_id": "624614080574-snmjbfglqommfevkhhr3bv3khr748cav.apps.googleusercontent.com",
              "client_type": 3
            }
          ]
        }
      }
    }
  ],
  "configuration_version": "1"
}